…
``` r
library(EMK)
```

`n_letter_words`
----------------

`n_letter_words` is a function that will produce all 'words' of `n` letters long. Its usage is `n_letter_words(n, num_letters = 26, case = c("upper", "lower"), as_vector = FALSE)`.

``` r
n_letter_words(3)
#> # A tibble: 17,576 x 1
#>     word
#>  * <chr>
#>  1   AAA
#>  2   BAA
#>  3   CAA
#>  4   DAA
#>  5   EAA
#>  6   FAA
#>  7   GAA
#>  8   HAA
#>  9   IAA
#> 10   JAA
#> # ... with 17,566 more rows
three_vec <- n_letter_words(3, as_vector = TRUE)
c(head(three_vec), tail(three_vec))
#>  [1] "AAA" "BAA" "CAA" "DAA" "EAA" "FAA" "UZZ" "VZZ" "WZZ" "XZZ" "YZZ"
#> [12] "ZZZ"
n_letter_words(5, num_letters = 2, case = "lower")
#> # A tibble: 32 x 1
#>     word
#>  * <chr>
#>  1 aaaaa
#>  2 baaaa
#>  3 abaaa
#>  4 bbaaa
#>  5 aabaa
#>  6 babaa
#>  7 abbaa
#>  8 bbbaa
#>  9 aaaba
#> 10 baaba
#> # ... with 22 more rows
```
…
